SUBJID,SITEID,SEX,CURSMK,CMDE,TRT01P,CAPSB1,CAPSB2,CAPSB3,CAPSB4,CAPSB5,CAPSC1,CAPSC2,CAPSD1,CAPSD2,CAPSD3,CAPSD4,CAPSD5,CAPSD6,CAPSD7,CAPSE1,CAPSE2,CAPSE3,CAPSE4,CAPSE5,CAPSE6,CAPSSUM1,pgic,cgi,BaseCapsb1,BaseCapsb2,BaseCapsb3,BaseCapsb4,BaseCapsb5,BaseCapsc1,BaseCapsc2,BaseCapsd1,BaseCapsd2,BaseCapsd3,BaseCapsd4,BaseCapsd5,BaseCapsd6,BaseCapsd7,BaseCapse1,BaseCapse2,BaseCapse3,BaseCapse4,BaseCapse5,BaseCapse6,BaseTotal
101-004,101,M,N,N,Placebo,0,-3,0,-2,-2,0,-3,0,0,0,-2,-3,-3,-3,-2,0,-1,-3,-2,-3,-32,1,1,0,3,0,2,2,0,3,2,0,0,2,3,3,3,2,0,3,3,2,3,36
101-008,101,M,N,Y,Placebo,-3,3,0,-3,-3,0,1,0,0,0,0,0,0,0,0,0,0,-2,1,0,-6,3,4,3,0,0,3,3,3,2,0,3,0,3,3,3,2,2,2,3,2,2,4,43
101-009,101,F,N,N,Placebo,-1,0,0,-2,-2,-1,-3,0,-3,0,-3,-2,-3,0,-2,0,0,0,-3,0,-25,3,2,3,0,0,2,2,3,3,2,3,3,3,2,3,0,2,0,3,0,3,0,37
102-001,102,M,Y,N,TNX-102 SL,-3,2,0,-2,0,0,0,0,0,0,-3,0,0,-3,-2,0,0,-2,-1,-2,-16,3,3,3,0,0,2,0,3,3,0,3,0,3,3,3,3,3,0,3,2,4,4,42
102-005,102,M,Y,N,TNX-102 SL,-3,-4,0,-3,-3,-3,-3,0,-3,0,-3,-3,-2,-2,0,0,0,-3,-2,-4,-41,1,1,3,4,0,3,3,3,3,0,3,0,3,3,3,2,0,0,2,3,2,4,44
102-009,102,M,N,N,TNX-102 SL,-3,-3,-2,-3,-3,0,0,-2,0,0,0,0,0,-1,-2,-3,0,-1,0,-3,-26,2,2,3,3,2,3,3,3,3,2,4,4,3,3,3,3,2,3,3,3,3,3,59
102-012,102,F,Y,Y,Placebo,-3,3,0,-1,-2,0,0,0,0,0,-1,0,0,0,0,0,-3,0,0,0,-7,5,3,3,0,0,3,2,3,3,0,3,3,3,3,3,0,2,0,3,2,3,3,42
102-016,102,F,N,Y,Placebo,-3,-3,-2,-2,-2,0,-3,0,0,-3,-2,0,1,0,-2,0,0,-2,0,0,-23,2,1,3,3,2,2,2,3,3,0,2,3,2,2,2,0,2,0,3,2,0,3,39
103-002,103,F,N,Y,Placebo,-1,-2,2,0,-1,0,-2,-2,0,0,1,0,-1,-1,3,0,-1,2,0,-1,-4,3,4,3,2,0,2,3,3,2,2,3,3,2,0,3,3,0,0,3,0,0,3,37
103-003,103,M,N,N,TNX-102 SL,0,-1,0,0,-1,-3,0,0,-2,0,0,-2,1,-3,-2,-2,0,0,-3,-3,-21,1,3,0,3,2,3,3,3,0,0,2,0,3,2,3,3,2,2,3,2,3,3,42
103-006,103,M,N,N,TNX-102 SL,-2,-3,-3,-3,-2,-3,-3,0,-3,0,-1,-3,-3,0,-2,0,-2,-1,-2,0,-36,1,1,2,3,3,3,2,3,3,0,3,0,1,3,3,0,2,0,3,2,2,0,38
103-008,103,M,N,N,Placebo,-3,0,0,0,0,0,-1,0,0,1,0,-1,0,-2,-3,0,0,3,0,0,-6,3,3,3,0,3,3,3,3,3,0,0,2,3,3,2,2,3,0,0,0,0,0,33
103-009,103,M,N,N,TNX-102 SL,-1,-3,-3,0,-3,0,-1,1,-3,-1,-2,0,0,0,-2,0,0,-2,0,0,-20,2,2,3,3,3,3,3,3,3,2,3,3,3,3,3,3,2,0,3,2,3,3,54
103-012,103,M,N,N,TNX-102 SL,-3,0,0,-3,-3,-3,-3,0,-1,-3,-1,-2,0,-1,-3,0,2,-3,0,-3,-30,2,2,3,0,0,3,3,3,3,0,3,3,3,2,3,3,3,0,0,3,3,3,44
103-013,103,M,Y,N,Placebo,-3,-3,-3,-3,-3,-3,0,-2,-3,-3,-3,0,-3,-3,-3,0,-3,-3,-3,0,-47,2,1,3,3,3,3,3,3,0,2,3,3,3,0,3,3,3,0,3,3,3,0,47
103-014,103,M,N,N,Placebo,-3,-3,-2,-3,-3,-3,-3,0,-3,-3,-3,-3,-3,-3,-3,-3,-2,-2,0,-3,-51,2,1,3,3,2,3,3,3,3,0,3,3,3,3,3,3,3,3,3,2,0,3,52
103-015,103,M,N,N,TNX-102 SL,-3,-3,-2,-2,-2,-2,-2,-2,-3,0,-1,-2,-3,-2,0,0,0,-2,-3,-3,-37,2,1,3,3,2,3,2,4,4,2,3,0,2,2,3,2,0,0,3,2,3,3,46
103-017,103,F,N,N,TNX-102 SL,-4,-4,-3,-2,-2,-4,-3,0,-3,-4,-3,-4,-4,-4,0,-2,-1,0,-4,-3,-54,1,1,4,4,3,3,3,4,3,0,3,4,4,4,4,4,2,2,4,0,4,4,63
103-018,103,F,N,N,Placebo,-2,-3,-2,-2,-3,-3,-3,-3,-2,0,-2,-1,0,0,-2,0,-2,0,-3,-3,-36,2,1,2,3,2,2,3,3,3,3,2,0,2,1,0,0,2,0,2,0,3,3,36
103-021,103,M,Y,N,Placebo,-2,0,-3,-3,-3,-3,-3,0,-4,-3,-3,-3,-3,-3,-2,-3,-3,0,-1,-3,-48,1,1,2,0,3,3,3,3,3,0,4,3,3,3,3,3,2,3,3,0,4,3,51
103-023,103,M,Y,N,TNX-102 SL,0,0,1,0,0,-1,-1,0,1,-1,0,-2,-1,0,0,0,0,-1,2,0,-3,4,4,3,3,2,3,3,3,3,0,2,3,3,2,3,2,2,0,3,3,0,3,46
103-024,103,M,Y,N,Placebo,-2,0,0,-2,-2,-2,-2,0,-3,0,-3,-3,-4,-3,-1,0,-2,-1,-3,-2,-35,2,1,2,0,0,2,2,2,2,0,3,0,3,3,4,3,1,0,4,2,3,4,40
103-025,103,M,N,N,TNX-102 SL,-4,-3,0,-3,-3,-3,-3,0,-4,0,-4,-3,-4,-4,-3,-3,-3,0,-1,-3,-51,2,1,4,3,0,3,3,3,3,0,4,0,4,3,4,4,3,3,3,0,4,3,54
104-002,104,M,N,N,TNX-102 SL,-1,-2,-2,0,0,0,0,0,0,-3,-1,-2,0,-2,0,0,1,-2,0,-1,-15,3,2,3,2,2,2,3,0,0,0,3,3,3,3,3,2,2,0,2,2,3,3,41
104-004,104,M,N,N,Placebo,0,0,0,-2,-1,-2,-1,-2,-1,0,-1,-2,-3,-2,-1,0,-1,-2,0,-1,-22,3,2,2,2,0,3,3,2,3,2,3,2,2,2,3,2,3,0,2,2,0,3,41
104-007,104,M,Y,N,Placebo,-2,0,0,-2,-3,-3,-3,0,-2,-2,-2,-2,-3,-3,-1,0,0,-2,-2,-2,-34,3,1,3,0,0,3,3,3,3,0,2,2,3,2,3,3,3,0,2,2,2,2,41
105-001,105,M,Y,Y,Placebo,0,0,-3,0,-1,-1,-3,2,1,-1,0,1,1,0,0,0,0,0,0,0,-4,4,3,3,3,3,2,3,3,3,0,2,3,3,2,2,2,2,0,2,0,2,3,43
105-003,105,M,N,N,Placebo,-3,-3,-2,-1,0,-3,0,0,0,0,-1,-3,-3,-3,-1,0,0,0,-1,-1,-25,4,2,3,3,2,3,2,3,3,0,3,0,3,3,3,3,3,0,2,3,1,3,46
105-006,105,M,N,N,TNX-102 SL,-1,0,0,-2,-1,-3,-2,-1,-1,-2,0,-2,-1,-1,0,0,0,1,0,-2,-18,3,2,2,0,0,2,3,3,3,3,3,3,2,3,2,3,2,2,2,2,3,2,45
105-008,105,M,Y,N,TNX-102 SL,-1,1,2,0,-1,0,-3,-1,0,0,-3,0,0,-1,0,-1,-1,1,-1,0,-9,3,2,3,2,0,3,3,3,3,3,3,0,3,3,3,3,2,3,3,2,3,3,51
105-010,105,M,N,N,Placebo,-2,-2,0,0,-2,-1,-2,0,0,0,-1,-3,-2,-3,-2,0,-2,-3,-3,-3,-31,2,2,2,2,0,2,2,3,2,0,2,0,3,3,2,3,2,0,2,3,3,3,39
105-011,105,M,N,N,TNX-102 SL,0,-2,1,-3,-1,-3,-3,-2,0,-1,-2,-3,-3,0,-2,0,-1,0,-3,-2,-30,2,1,2,2,0,3,2,3,3,2,0,3,2,3,3,0,2,0,3,0,3,2,38
106-004,106,M,N,N,TNX-102 SL,-3,-2,0,-1,-3,-1,1,0,1,0,0,-1,-1,0,2,0,0,0,0,0,-8,4,4,3,2,2,3,3,3,2,0,3,0,3,3,4,3,0,2,3,2,3,3,47
106-005,106,M,N,N,Placebo,-2,0,0,0,-2,-2,-2,-1,-1,0,-1,0,-1,0,0,1,-1,1,-1,-1,-13,3,3,2,2,0,2,2,2,2,3,3,2,3,2,3,2,2,2,3,2,3,3,45
106-006,106,M,N,Y,Placebo,1,1,0,0,-2,-2,-2,0,1,-2,-1,1,-1,-3,0,-2,0,-2,-1,-1,-15,3,2,2,2,0,2,2,2,2,0,2,2,2,1,2,3,0,2,3,2,3,3,37
106-010,106,M,Y,N,TNX-102 SL,0,2,0,0,0,-2,0,-3,0,0,0,0,-2,0,0,-3,0,2,-3,1,-8,4,3,2,0,0,2,2,2,0,3,3,0,3,2,2,2,2,3,3,0,3,2,36
106-015,106,M,N,N,TNX-102 SL,-3,-1,0,-3,0,-1,0,-2,-3,-2,-2,-3,2,-3,1,0,-1,0,-3,-3,-27,2,1,3,3,0,3,0,3,0,2,3,2,3,3,0,3,0,0,3,0,3,3,37
106-017,106,M,Y,N,Placebo,-1,0,-2,-3,-1,-3,-3,0,0,-1,0,-2,-2,0,0,-3,2,0,0,0,-19,3,2,3,3,2,3,3,3,3,0,2,3,3,2,2,3,3,3,1,0,3,3,48
106-018,106,M,N,N,Placebo,-3,-2,0,-3,-3,0,-2,0,0,-2,0,-1,1,1,0,0,0,-2,0,0,-16,3,3,3,2,0,3,3,2,2,0,3,2,3,3,2,2,3,0,3,2,3,3,44
106-019,106,M,N,N,TNX-102 SL,-3,0,0,-1,-1,0,-3,0,-2,0,-2,-3,-2,0,-2,0,-3,0,0,-2,-24,1,1,3,0,0,3,3,0,3,2,2,0,2,3,2,0,2,0,3,2,0,3,33
106-020,106,F,N,N,Placebo,0,0,0,-1,0,0,0,0,0,0,0,0,1,0,0,0,1,0,-1,0,0,4,4,3,0,0,3,3,3,3,0,3,0,3,2,2,2,2,0,2,2,3,3,39
109-007,109,F,Y,Y,TNX-102 SL,0,-2,-3,-1,-1,-1,2,0,-4,0,0,-1,0,0,0,0,-1,0,-1,-1,-14,3,3,3,2,3,3,3,4,0,2,4,4,3,4,4,3,0,0,2,0,4,4,52
109-010,109,M,N,N,Placebo,0,-1,-3,0,1,-1,0,0,1,-1,1,0,0,0,1,0,0,-3,-1,0,-6,4,4,3,3,3,3,2,3,3,0,2,3,2,2,3,0,2,0,3,3,3,3,46
109-015,109,F,N,N,TNX-102 SL,-2,-3,0,-1,-1,-3,0,-1,-2,0,-2,-1,-2,-2,0,0,0,0,-1,-2,-23,1,1,2,3,0,3,2,3,0,3,2,0,2,2,2,2,2,0,2,0,3,4,37
109-017,109,M,N,N,TNX-102 SL,-2,0,-2,-1,0,0,0,0,-3,0,-2,-3,-3,-3,0,0,-1,0,-3,0,-23,3,1,2,0,2,3,2,2,2,0,3,0,2,3,3,3,0,0,3,0,3,3,36
110-004,110,M,N,N,Placebo,-2,-2,-2,-3,0,-2,-2,0,-1,-2,1,-2,0,-3,0,-2,-2,-3,0,-3,-30,1,1,2,2,2,3,2,2,2,2,2,2,2,2,3,3,2,3,3,3,2,3,47
113-001,113,M,N,Y,Placebo,0,-3,0,-2,-2,-3,-3,-3,-1,-4,-4,-3,-3,-3,-3,0,0,-2,-4,-1,-44,3,1,0,3,0,2,2,3,3,3,4,4,4,3,3,3,3,0,3,2,4,4,53
113-005,113,M,Y,N,TNX-102 SL,-1,0,-1,-1,-1,0,0,0,-3,0,-2,-3,0,-2,-2,-3,0,0,0,0,-19,4,2,3,0,1,3,3,3,3,0,3,0,3,3,3,2,2,3,2,3,2,3,45
113-007,113,F,N,N,Placebo,-2,-1,0,-1,-1,-2,0,0,2,0,0,-2,0,-1,0,0,-1,-1,-1,-1,-12,2,2,2,3,0,3,3,2,2,0,0,1,2,2,3,1,2,0,3,3,1,3,36
113-009,113,F,Y,N,TNX-102 SL,0,-2,0,0,-1,0,0,0,-2,0,0,-1,-1,-2,-1,0,-3,-3,-2,-3,-21,2,2,0,2,0,2,3,0,2,0,2,0,2,1,1,2,3,0,3,3,3,3,32
114-004,114,M,N,N,Placebo,-2,-2,0,-3,-2,-3,0,0,2,-2,0,2,-1,0,1,-2,0,-2,1,1,-12,3,3,2,2,0,3,2,3,0,0,0,2,3,0,2,0,2,2,3,2,2,3,33
114-005,114,M,N,N,TNX-102 SL,-3,0,-2,-3,-2,-3,0,0,-2,-2,-2,-2,-2,-2,-3,-3,-2,-3,-2,-3,-41,2,2,3,0,2,3,2,3,0,0,2,2,2,2,2,2,3,3,2,3,2,3,41
114-007,114,M,N,N,TNX-102 SL,-1,0,2,-1,0,-1,0,0,0,0,-1,-1,0,0,-1,0,-1,2,1,0,-2,3,3,3,3,0,3,3,3,0,3,2,2,3,3,3,2,2,0,3,0,2,3,43
114-011,114,M,N,N,Placebo,-3,-3,-2,-2,-3,-2,-2,-2,-2,0,-2,-3,-2,0,-1,0,0,-2,-2,-4,-37,2,3,3,3,2,2,3,2,2,2,2,0,2,3,2,0,1,0,0,2,2,4,37
114-012,114,M,N,N,TNX-102 SL,0,-3,0,0,0,3,0,-1,2,0,1,2,0,-1,-2,-2,-1,-2,0,-1,-5,4,3,2,3,0,2,2,0,0,2,0,0,2,0,3,3,2,2,3,2,0,4,32
115-001,115,M,N,N,TNX-102 SL,0,-1,-1,0,0,-1,-1,0,-2,1,0,-3,0,-3,-1,-1,1,-2,0,-1,-15,3,2,2,3,3,2,2,3,3,2,2,2,2,3,3,3,3,1,2,2,3,3,49
115-003,115,M,N,N,Placebo,-2,-3,-3,-2,-2,-2,-3,-1,-2,0,-3,-2,-2,-2,-2,-2,0,-2,-2,-2,-39,2,1,2,3,3,2,2,2,3,2,2,2,3,2,2,2,2,2,3,2,2,3,46
116-001,116,M,N,N,Placebo,-1,3,2,-1,-1,2,0,0,0,-1,1,0,-1,0,0,0,0,0,0,-1,2,4,4,3,0,0,3,3,0,3,0,0,2,2,2,3,3,2,0,2,0,2,3,33
116-003,116,M,Y,Y,TNX-102 SL,-1,0,0,-3,-2,-2,0,0,0,-1,-1,-2,0,0,-2,-1,-1,0,2,-2,-16,3,2,3,0,0,3,2,3,2,2,2,2,3,2,3,3,2,1,3,0,0,2,38
116-006,116,M,Y,N,Placebo,-2,-1,0,-3,0,0,0,-3,0,1,0,0,0,1,-2,0,0,0,-2,0,-11,4,4,2,3,0,3,3,2,2,3,3,3,2,2,3,2,2,0,3,3,2,4,47
116-007,116,M,N,N,TNX-102 SL,-1,-1,2,-3,0,-3,0,0,-2,0,0,1,-2,-2,-1,0,1,-1,0,-3,-15,2,2,3,3,0,3,2,3,2,3,2,3,2,2,2,2,2,0,2,2,2,3,43
116-010,116,M,Y,N,TNX-102 SL,-4,-2,-1,-1,-1,-1,0,0,0,2,-2,-2,0,0,-1,-3,0,-1,-4,-4,-25,2,2,4,4,3,3,3,3,3,0,4,2,4,4,4,4,3,3,4,3,4,4,66
116-011,116,F,N,N,Placebo,0,0,-1,0,-1,-1,-1,0,0,0,-1,1,0,0,0,0,-2,0,-1,-1,-8,4,3,3,0,3,3,4,3,4,0,4,4,4,2,3,3,2,0,4,3,3,4,56
116-013,116,M,N,N,Placebo,-1,-3,0,-2,-3,-2,-3,0,-3,-2,-2,0,-3,-3,-3,-3,-1,0,0,-1,-35,2,2,3,3,0,2,3,2,3,0,3,3,4,2,3,3,3,3,3,0,2,3,48
116-014,116,F,N,N,TNX-102 SL,0,0,0,-1,0,-1,-1,0,-2,-1,-1,-2,-2,0,-1,0,0,1,0,0,-11,4,3,2,0,0,3,2,3,3,0,2,1,3,2,2,3,3,0,2,2,2,4,39
116-015,116,F,N,Y,Placebo,0,3,0,0,0,0,1,0,0,1,1,1,1,1,0,0,0,1,-1,0,9,4,5,3,0,0,3,3,3,2,0,3,3,2,3,2,2,2,0,3,2,4,3,43
116-016,116,M,N,Y,TNX-102 SL,-1,-3,0,-1,-3,-1,0,0,0,-4,-3,-1,-1,-1,0,-2,-2,-3,0,-3,-29,2,2,3,3,2,3,3,3,3,0,4,4,3,3,3,3,3,2,4,3,2,3,57
116-017,116,M,N,Y,Placebo,0,-2,-2,0,0,-1,-1,0,0,0,0,-1,0,0,0,-3,0,0,0,0,-10,4,3,3,2,2,3,3,3,3,0,4,4,3,3,3,3,2,3,3,2,3,3,55
116-018,116,M,N,N,TNX-102 SL,-3,0,0,-2,-2,-1,0,0,-1,-3,-3,-2,-3,-2,0,0,-1,-2,-2,-3,-30,1,1,3,0,0,2,2,3,2,0,2,3,3,2,3,2,2,0,2,2,3,3,39
117-003,117,M,N,N,TNX-102 SL,-2,-1,-1,-2,-2,-2,-2,-1,0,-2,-2,-1,0,-2,0,-1,-1,-2,0,0,-24,3,2,2,2,1,2,2,2,3,2,4,2,2,4,3,4,1,1,2,2,2,0,43
117-005,117,M,Y,N,TNX-102 SL,0,-3,0,-2,-2,0,-3,0,-4,0,-3,-3,0,-4,0,2,-1,-1,-4,0,-28,1,1,0,3,0,2,2,0,3,0,4,0,3,3,3,4,0,0,3,1,4,3,38
118-004,118,M,N,N,Placebo,0,-3,0,0,0,0,1,0,0,0,-1,0,1,0,-1,0,-1,-1,0,-3,-8,2,3,2,3,3,3,3,2,2,2,2,3,3,2,2,2,3,2,3,3,2,3,50
119-004,119,M,N,Y,TNX-102 SL,-3,-2,-3,-3,-3,0,-3,0,0,-3,-3,-4,-2,-4,-1,-2,-3,0,-1,0,-40,1,1,3,2,3,3,3,0,3,0,3,3,3,4,4,4,3,2,3,2,3,3,54
120-010,120,M,N,N,TNX-102 SL,-2,0,0,1,0,-2,-2,0,-3,-2,-3,-3,-2,-2,0,0,0,0,-1,0,-21,3,2,2,2,0,2,2,2,2,0,3,2,3,3,3,2,2,0,3,0,1,3,37
121-001,121,F,N,N,Placebo,-2,-2,0,-3,-1,-3,0,0,0,-2,-2,0,-2,0,0,0,-3,-2,-2,-3,-27,2,1,2,2,2,3,3,3,0,0,2,2,2,0,2,0,0,0,3,2,2,3,33
121-003,121,M,Y,N,TNX-102 SL,-2,0,0,-3,-3,-3,-2,0,-2,-2,-1,-3,-3,0,-2,0,-3,-2,-2,-3,-36,1,1,2,0,0,3,3,3,2,0,2,2,1,3,3,0,2,0,3,2,2,3,36
121-008,121,M,N,N,Placebo,0,0,-3,-2,-2,-3,-1,0,-2,-2,-2,-2,0,-2,-2,0,-1,-2,-2,0,-28,2,1,0,0,3,2,2,3,3,0,2,2,2,2,0,2,2,0,2,2,3,2,34
121-015,121,M,N,N,Placebo,-3,-2,-3,0,0,-2,-1,0,0,0,0,0,-1,-2,0,0,1,0,0,1,-12,4,2,3,2,3,2,2,2,3,0,2,0,2,2,3,2,2,0,2,2,2,2,38
121-017,121,M,N,N,TNX-102 SL,-2,-2,-2,-2,-3,-2,-2,-2,-2,-2,-2,-2,-2,-2,-2,0,-2,-2,-2,-3,-40,2,1,2,2,2,2,3,2,2,2,2,2,2,2,2,2,2,0,2,2,2,3,40
121-020,121,M,Y,N,TNX-102 SL,-1,-3,-3,0,0,0,0,0,0,-2,0,0,1,0,1,0,0,-3,-1,0,-11,3,3,3,3,3,3,2,3,3,0,2,2,3,3,2,2,2,0,3,3,3,3,48
121-026,121,M,N,N,Placebo,-2,-3,-2,0,-1,-3,0,0,-1,0,-1,0,1,0,2,0,1,-2,-1,0,-12,3,2,3,3,2,2,2,3,2,0,2,2,2,2,2,0,0,0,2,2,3,3,37
122-001,122,M,N,N,TNX-102 SL,-3,-2,0,-3,0,0,0,0,0,0,-3,-4,-4,-3,-2,0,-2,-2,-3,-3,-34,1,1,3,2,0,3,0,0,0,0,0,0,3,4,4,3,2,0,2,2,3,3,34
122-003,122,M,Y,N,Placebo,0,1,-2,0,0,0,-1,0,0,-1,0,-1,-1,-1,0,0,2,-2,-1,1,-6,4,3,2,2,2,2,2,4,4,0,4,4,3,3,4,1,2,0,2,2,2,3,48
122-006,122,M,N,N,Placebo,-2,0,0,-2,-1,-3,-3,0,-1,-1,0,3,0,-1,2,0,2,-2,0,0,-9,2,2,4,0,0,4,3,3,3,0,4,3,3,0,4,4,0,0,2,2,2,3,44
122-007,122,M,N,N,TNX-102 SL,0,0,-3,0,-3,-3,-3,0,-4,0,-2,-3,-4,-3,0,-2,-1,-3,0,-1,-35,2,1,0,0,3,0,3,3,3,0,4,0,2,3,4,3,0,2,3,3,0,4,40
122-013,122,M,N,Y,TNX-102 SL,0,-2,3,0,1,0,0,0,0,1,0,-3,0,0,0,2,-1,1,0,-2,0,3,4,3,2,0,2,2,3,2,0,3,2,3,3,3,3,2,0,3,2,3,2,43
122-014,122,M,N,N,Placebo,0,-3,-3,0,0,0,1,-3,1,-1,0,0,-1,1,0,0,0,0,-1,0,-9,3,3,3,3,3,3,3,3,3,3,3,2,3,3,3,2,2,3,3,2,3,3,56
122-015,122,M,N,N,TNX-102 SL,4,2,0,0,1,0,1,0,0,1,-1,0,0,1,0,0,0,0,2,0,11,4,5,0,2,0,3,3,4,3,0,4,3,4,4,4,3,2,0,3,3,0,3,48
122-017,122,M,N,Y,Placebo,-3,0,0,-2,-2,-3,-2,0,-3,-2,-3,-3,0,-3,0,0,-1,-3,-1,-3,-34,1,1,3,0,0,3,3,3,2,2,3,2,3,3,0,3,0,0,3,3,3,3,42
124-001,124,M,N,N,Placebo,-1,-1,0,-3,-3,0,1,-3,0,0,-1,-1,0,-3,0,0,0,0,0,-2,-17,1,2,3,3,3,3,3,3,3,3,0,0,3,3,3,3,0,0,3,0,0,3,42
124-002,124,M,N,N,TNX-102 SL,-2,1,0,-2,-2,1,0,0,0,2,0,-1,0,0,0,-2,0,1,-1,0,-5,3,3,2,2,0,2,2,2,0,2,0,0,2,3,3,0,2,2,3,2,1,3,33
124-006,124,M,N,N,TNX-102 SL,-2,-2,0,-2,-2,-3,0,0,-3,-1,-3,0,-1,2,-3,0,0,-2,-2,-2,-26,3,2,2,2,0,2,2,3,2,0,3,3,3,3,3,0,3,0,3,2,2,2,40
124-007,124,M,Y,N,Placebo,-2,0,-2,-2,-2,-3,-1,0,-3,-3,-3,0,0,0,-2,0,0,-3,-3,0,-29,3,2,2,0,2,2,2,3,3,0,3,3,3,3,3,3,2,0,3,3,3,3,46
124-008,124,M,Y,N,Placebo,0,0,0,0,0,-2,0,0,-2,0,0,0,0,0,-2,0,1,0,1,0,-4,4,4,3,3,2,3,3,2,3,0,2,3,3,3,3,2,2,0,3,3,2,3,48
125-002,125,M,N,N,TNX-102 SL,-1,-1,0,0,-2,-1,-1,0,0,-2,1,-1,0,0,0,2,0,0,1,0,-5,4,4,3,3,0,2,2,3,3,0,2,2,2,3,3,3,2,0,2,0,2,4,41
126-001,126,F,N,N,Placebo,-3,-3,0,-3,0,-3,0,-3,-2,-2,-2,-3,0,0,-3,0,-2,0,0,-3,-32,1,1,3,3,0,3,0,3,0,3,2,2,2,3,0,0,3,0,3,0,0,3,33
126-003,126,M,N,N,TNX-102 SL,-3,1,0,-2,-3,-1,-1,-2,-1,-3,-3,-1,-1,-2,-3,-1,0,1,0,-2,-27,3,3,3,0,0,3,3,1,1,2,2,3,3,2,3,2,3,1,2,1,0,4,39
126-006,126,M,N,N,Placebo,-3,-3,0,-3,-2,-3,-3,0,0,-3,-3,-4,-3,-3,-3,0,-3,-2,0,-3,-44,1,1,3,3,0,3,2,3,3,0,0,3,3,4,3,3,3,0,3,2,0,3,44
127-004,127,M,Y,N,TNX-102 SL,-2,0,0,-2,-2,0,-2,0,0,0,0,-2,-1,0,-2,-1,0,-2,0,-3,-19,3,2,2,0,0,3,3,0,2,0,3,0,3,3,3,2,3,1,3,2,0,3,36
127-008,127,M,Y,N,Placebo,-3,-3,-2,-1,-2,-3,-2,0,1,-2,0,-1,1,3,-2,1,0,0,0,0,-15,2,2,3,3,2,3,2,3,2,0,2,2,2,1,2,0,2,2,2,0,3,3,39
127-010,127,F,Y,N,Placebo,-2,0,0,-2,-2,-3,-1,0,-1,0,-3,-1,0,1,0,0,-1,-2,-3,0,-20,4,2,2,0,0,2,2,3,3,0,3,0,3,2,0,0,2,0,3,2,3,3,33
127-012,127,M,Y,N,TNX-102 SL,-3,-3,0,-1,-3,-1,0,0,0,-3,0,-1,-2,-1,-2,-2,-1,-3,0,-1,-27,2,2,3,3,0,3,3,3,3,0,3,3,2,3,3,3,2,2,3,3,0,3,48
127-013,127,M,N,Y,TNX-102 SL,-3,-3,0,-3,-3,-3,-3,0,0,-3,-1,-1,-1,-1,-1,0,0,0,0,-3,-29,3,2,3,3,0,3,3,3,3,0,3,3,3,3,3,3,3,0,3,3,3,3,51
128-001,128,M,N,Y,TNX-102 SL,-3,-1,0,-1,1,-1,0,0,1,0,0,0,-3,-2,0,0,-1,-2,0,-1,-13,4,3,3,3,0,3,2,3,3,0,1,0,2,2,3,2,0,0,2,2,0,4,35
128-006,128,M,Y,Y,Placebo,1,-3,-2,-2,-1,0,0,0,-2,0,0,-3,0,-1,0,0,0,0,-1,0,-14,4,3,0,3,2,2,2,3,3,0,2,0,2,3,3,3,0,0,3,0,3,4,38
128-007,128,M,N,Y,TNX-102 SL,0,0,-2,1,0,-1,-1,0,0,1,-1,-2,0,-2,-1,0,0,0,0,0,-8,4,3,2,3,2,1,2,3,2,0,2,0,3,2,0,2,2,0,2,2,2,4,36
129-002,129,M,N,N,Placebo,-3,-3,0,-2,-2,-1,0,0,-3,-2,-2,-2,-3,-2,0,0,-3,0,-1,-3,-32,2,2,3,3,0,2,2,3,2,2,3,2,2,2,3,2,0,0,3,0,1,3,38
129-003,129,M,N,N,TNX-102 SL,-2,-3,-2,-2,-3,-3,-2,0,-1,-3,0,0,0,0,-3,0,0,-3,0,0,-27,3,3,2,3,2,2,3,3,3,3,4,3,3,3,4,3,3,0,3,3,3,3,56
129-004,129,M,N,N,Placebo,-2,0,0,-2,0,0,-3,-2,-3,-3,-2,0,0,-1,-3,0,-3,0,0,0,-24,3,3,2,0,0,2,0,0,3,2,3,3,2,3,3,3,3,0,3,0,3,0,35
129-005,129,M,N,N,Placebo,-2,0,-1,-2,-2,-3,-3,0,0,-2,-1,-2,-3,0,1,0,0,-3,-1,0,-24,1,3,2,0,1,2,2,3,3,0,3,2,2,3,3,3,1,0,3,3,1,3,40
129-007,129,M,Y,N,TNX-102 SL,0,0,0,-2,-2,-2,-2,0,-3,0,-3,-1,-3,-3,0,0,-1,1,-2,-3,-26,2,2,0,0,0,2,2,4,2,0,3,0,3,3,3,3,0,0,3,0,2,3,33
129-008,129,M,N,N,TNX-102 SL,0,0,0,-2,-3,0,-2,0,-3,0,-2,-3,-2,-3,-2,-2,-1,0,-2,-3,-30,2,2,0,2,0,2,3,2,2,0,3,0,2,3,4,3,2,2,3,0,2,3,38
129-009,129,M,N,N,Placebo,-1,0,0,-1,-1,-1,-1,0,0,0,0,0,0,1,0,-1,0,0,0,-2,-7,3,4,2,0,0,1,3,2,3,2,2,0,2,2,3,2,2,3,3,2,3,2,39
129-012,129,M,Y,N,TNX-102 SL,3,0,0,1,0,-1,0,0,0,0,-2,0,0,-2,0,0,0,1,0,-1,-1,3,4,0,0,0,2,0,4,3,0,4,0,4,3,3,4,2,0,3,2,2,3,39
129-013,129,M,N,N,TNX-102 SL,-1,-1,0,0,0,-2,0,0,0,2,0,0,0,1,-2,0,-4,0,0,-3,-10,2,3,3,3,0,2,2,3,0,2,3,0,3,3,3,3,2,0,4,0,3,3,42
129-014,129,M,Y,N,TNX-102 SL,-2,1,0,-2,0,-3,-3,0,-3,0,-2,-2,-3,-3,-2,0,-3,2,-2,-1,-28,2,2,2,0,0,2,0,3,3,0,3,0,2,2,3,3,2,0,3,0,2,3,33
129-015,129,F,N,N,Placebo,-1,0,0,-1,-1,0,-1,0,1,1,-1,-1,0,0,0,-2,0,0,-1,-1,-8,3,3,3,3,0,3,3,3,4,3,3,2,3,4,4,3,2,2,3,0,3,4,55
129-017,129,M,N,N,Placebo,-3,-3,0,-2,-2,-3,-3,0,-3,0,-1,-3,-3,-2,0,0,-3,-2,-1,-4,-38,1,1,3,3,0,2,2,3,3,0,3,0,1,3,3,2,0,0,3,2,1,4,38
131-002,131,M,N,N,TNX-102 SL,0,0,1,0,0,0,0,0,-1,-1,1,0,0,0,0,-2,0,0,0,0,-2,4,4,3,3,2,2,2,3,3,0,3,1,2,2,3,2,2,2,2,2,2,3,44
131-003,131,M,Y,N,Placebo,0,2,0,-1,-2,-3,-2,0,1,0,1,-1,-3,-1,0,0,0,-1,-2,0,-12,3,3,3,0,0,3,2,3,2,0,2,0,2,3,3,3,2,0,2,3,2,3,38
131-006,131,M,N,N,TNX-102 SL,-3,-2,0,-2,-3,-2,-2,0,-2,0,-2,-2,-3,0,-2,0,-3,-2,-2,-3,-35,2,1,3,2,0,2,3,2,2,0,2,0,2,2,3,0,2,0,3,2,2,3,35
131-008,131,M,Y,N,Placebo,-2,0,-2,0,1,0,-2,0,0,-2,0,0,-1,-1,-1,-2,0,0,-1,-1,-14,3,2,2,2,2,2,2,0,2,0,2,2,2,2,2,2,2,2,2,2,2,3,37
131-013,131,M,Y,N,Placebo,-2,0,-2,-2,-2,-1,-2,1,0,0,-2,-1,-3,-2,-1,-1,-2,-2,-2,-3,-29,3,3,2,0,2,2,2,2,2,1,2,0,2,3,3,2,3,3,2,2,2,3,40
131-015,131,M,N,N,TNX-102 SL,-2,-2,-2,-3,-1,-2,-3,-3,-3,0,-3,-3,-3,-2,-2,0,-2,-1,-3,-3,-43,1,1,2,2,2,3,2,2,3,3,3,0,3,3,3,2,2,0,3,2,3,3,46
131-023,131,M,N,N,Placebo,0,-1,2,-1,-3,-1,-1,3,-3,-2,-1,0,-3,0,-2,0,-1,-3,0,0,-17,4,2,0,3,0,3,3,3,3,0,3,2,3,0,3,0,2,0,3,3,0,3,37
131-024,131,M,Y,N,TNX-102 SL,-2,-3,0,-2,-2,-1,-1,0,-2,1,-1,-1,0,0,-2,0,-2,0,0,-3,-21,2,2,2,3,0,2,2,4,4,0,4,0,3,3,3,3,3,0,4,0,2,3,45
131-025,131,M,Y,N,Placebo,-1,0,-2,-1,2,0,-3,-2,-1,-2,-1,-1,-1,-1,0,2,0,0,-2,-1,-15,4,4,3,3,2,3,0,3,3,3,3,4,3,3,4,4,3,0,2,2,3,4,55
131-026,131,M,Y,N,TNX-102 SL,-1,-1,0,-2,0,-3,-3,0,0,0,0,-3,-3,0,-1,0,-2,0,-2,-3,-24,2,1,3,3,0,3,2,3,3,0,0,0,0,3,3,3,3,0,2,0,2,3,36
131-028,131,M,Y,N,TNX-102 SL,-3,-1,0,-3,-3,-1,-1,0,-2,-2,-2,-2,-1,-3,0,0,0,-2,-3,-1,-30,3,2,3,3,0,3,3,3,3,2,2,2,2,2,3,3,1,0,2,2,3,4,46
131-029,131,M,N,N,TNX-102 SL,-2,-1,-3,-3,-2,0,0,-3,0,0,-1,0,-1,-3,-2,0,0,-1,-1,-2,-25,2,2,2,3,3,3,3,0,0,3,0,0,1,1,3,3,2,0,2,3,2,3,37
131-031,131,M,N,N,Placebo,0,-1,0,0,0,0,-2,-2,0,-3,-1,-3,-2,0,2,0,1,2,-2,-3,-14,4,2,3,3,0,3,2,3,2,2,2,3,3,3,4,3,0,0,0,0,2,3,41
131-033,131,M,Y,N,Placebo,-3,1,0,-3,-3,0,-3,-3,-2,-1,-2,-2,-3,0,-2,0,-2,-2,-1,-2,-33,3,1,3,0,0,3,3,3,3,3,2,1,2,3,3,0,2,0,2,2,2,2,39
132-006,132,M,N,N,TNX-102 SL,0,1,0,0,0,-1,-3,-2,0,-1,-2,0,0,-1,-2,0,0,0,-3,0,-14,3,3,3,2,0,0,3,3,3,2,3,3,2,3,4,3,2,0,2,0,3,3,44
132-008,132,M,Y,N,Placebo,-3,0,0,-3,0,0,0,-1,-1,-4,-1,-1,-1,0,-2,0,0,0,0,0,-17,4,3,3,3,0,3,0,3,3,3,3,4,3,3,3,3,2,0,3,0,3,3,48
132-010,132,M,N,Y,TNX-102 SL,-3,-1,-2,-1,-1,0,3,0,0,0,0,0,-1,-1,-1,0,0,3,-1,0,-6,4,3,3,3,2,3,3,3,0,0,3,0,3,2,2,3,2,0,3,0,3,3,41
132-011,132,M,N,Y,Placebo,-1,2,0,0,-1,0,0,0,0,-1,0,-1,0,0,-1,-2,3,-1,0,0,-3,4,4,3,0,0,3,3,3,0,0,3,3,2,3,3,3,1,2,0,3,3,3,41
132-012,132,M,Y,Y,Placebo,-1,-1,0,-3,-2,0,2,0,-1,0,-3,-3,-3,-3,-2,0,0,0,-1,0,-21,2,2,3,3,0,3,2,0,0,0,3,0,3,3,3,3,2,0,3,0,3,2,36
132-013,132,F,N,N,TNX-102 SL,0,-3,2,0,-1,1,0,0,0,0,0,1,-2,-2,1,0,0,0,0,-1,-4,3,4,3,3,0,3,3,2,4,3,3,0,2,2,3,2,2,0,3,3,2,3,46
132-014,132,M,Y,Y,TNX-102 SL,0,0,0,0,0,0,0,0,-2,-1,0,0,0,0,0,0,0,1,0,-1,-3,4,4,3,3,0,3,3,3,3,0,2,3,3,3,3,2,2,0,3,2,3,4,48
132-015,132,M,Y,N,TNX-102 SL,-1,-3,0,-1,-1,-1,-1,0,-1,-2,-2,0,0,-1,0,0,-2,-2,0,-1,-19,3,3,3,3,0,3,3,3,3,3,2,2,3,2,3,2,0,0,3,3,3,3,47
132-016,132,M,N,Y,Placebo,0,0,0,-1,-1,-3,-2,3,-3,-3,-2,0,1,0,-2,0,0,2,-1,-1,-13,3,3,0,2,0,3,3,3,4,0,3,3,2,3,2,3,2,0,3,0,4,4,44
132-017,132,M,N,Y,TNX-102 SL,-3,-2,-2,-3,-2,0,0,0,-3,-3,-3,-2,-2,-3,-3,0,-2,-2,-3,-1,-39,1,1,3,2,2,3,2,2,3,0,3,3,3,2,2,3,3,0,2,2,3,3,46
132-019,132,M,N,N,Placebo,-1,-1,-2,-3,-1,-2,-2,-3,-3,-2,-3,-2,-2,0,1,0,-2,0,-2,-3,-33,2,2,3,3,2,3,3,2,2,3,3,2,3,2,2,0,2,0,2,2,2,3,44
132-020,132,M,N,N,TNX-102 SL,-1,-1,-2,-1,-2,0,-2,0,1,1,-1,0,-4,1,-2,0,0,-2,-1,-1,-17,3,2,3,3,2,3,2,0,2,0,2,2,3,3,4,2,2,0,3,2,3,3,44
132-021,132,M,N,N,Placebo,-1,0,0,-1,0,0,-2,-2,-3,-3,-3,-3,-3,-3,0,0,-3,-3,-1,0,-31,4,2,3,0,0,3,3,2,2,2,3,3,3,4,3,3,0,0,3,3,3,2,45
132-022,132,M,Y,N,TNX-102 SL,0,-3,0,-2,-2,1,0,0,0,0,0,0,1,0,0,0,0,0,-1,-1,-7,4,3,2,3,0,2,2,2,3,0,3,0,3,3,3,0,0,0,3,2,3,4,38
132-023,132,M,N,Y,Placebo,-1,-1,2,-1,-1,-2,-1,-1,-2,0,-1,-3,-1,-3,0,-2,0,-1,-2,-2,-23,2,2,3,3,0,3,3,2,3,3,4,2,3,3,3,3,2,2,3,3,3,3,54
132-025,132,M,N,Y,Placebo,0,0,0,0,0,-1,-3,1,0,0,1,0,0,0,0,0,0,0,0,0,-2,5,4,2,0,0,2,0,3,3,2,3,0,2,3,3,3,2,0,3,0,3,3,37
132-026,132,F,N,N,Placebo,-1,-3,0,0,1,1,1,-3,0,0,0,1,0,-2,-1,0,0,0,0,0,-6,3,4,3,3,0,3,2,2,2,3,0,0,2,1,2,2,3,0,3,3,2,3,39
132-027,132,M,N,Y,Placebo,0,1,0,0,0,0,-3,-3,0,4,1,0,0,0,-1,0,0,0,0,0,-1,6,4,3,2,0,3,0,3,3,3,3,0,3,4,4,3,2,0,3,0,2,3,44
133-001,133,M,Y,N,TNX-102 SL,-2,-3,0,-1,-3,-3,-2,0,-3,-1,-1,-2,-3,-3,-2,-2,-3,2,-3,-3,-38,2,1,3,3,0,1,3,3,2,0,3,1,3,2,3,3,2,2,3,0,3,3,43
133-002,133,M,N,N,TNX-102 SL,-1,-2,0,0,0,0,0,0,-1,3,0,-1,0,0,0,0,0,0,0,0,-2,3,4,3,2,0,0,0,3,3,0,4,0,3,4,4,4,0,0,4,0,3,3,40
133-003,133,M,N,N,Placebo,-2,-2,0,-2,-2,-3,0,-2,-2,1,-2,-3,0,0,0,0,1,0,0,0,-18,4,3,2,2,0,2,2,3,3,2,2,2,2,3,0,0,0,0,2,0,3,3,33
133-004,133,M,N,N,Placebo,-1,-2,0,-1,-1,0,1,0,0,0,0,0,1,0,0,0,0,-2,-2,0,-7,4,4,3,2,0,3,3,2,2,0,3,3,3,3,2,0,2,0,3,2,2,3,41
133-007,133,M,N,N,Placebo,-3,0,-2,0,0,-2,-3,0,-2,0,0,-1,-3,-2,-1,0,0,-2,-2,-1,-24,1,1,3,0,2,2,2,2,3,0,2,0,2,2,3,2,3,3,2,2,2,3,40
133-008,133,M,Y,N,TNX-102 SL,-1,0,-2,0,0,0,0,0,-2,2,-2,0,-1,-1,0,0,0,-2,0,0,-9,3,3,1,0,2,0,0,0,0,2,2,0,3,3,3,3,3,3,3,2,3,3,36
133-010,133,M,Y,N,Placebo,-3,0,0,-3,-3,-3,-1,0,-2,-3,-2,-3,-2,-3,-1,-2,-3,-3,-3,-2,-42,2,1,3,0,0,3,3,3,3,0,3,3,2,3,3,3,3,2,3,3,3,3,49
133-011,133,M,Y,N,Placebo,-1,0,0,-1,0,0,0,0,0,1,1,1,1,3,-2,0,1,0,-2,0,2,3,4,3,0,0,3,3,0,3,0,2,1,2,2,3,0,2,0,2,2,2,3,33
133-012,133,M,Y,N,TNX-102 SL,-2,0,0,-3,-3,-3,-3,2,-2,-3,-3,-1,-3,-3,-2,-2,-1,0,-3,-1,-36,3,1,2,0,0,3,3,3,3,0,2,3,3,3,3,3,2,2,3,2,3,3,46
133-013,133,M,N,N,TNX-102 SL,0,0,1,0,0,0,0,0,0,0,0,1,0,-3,0,0,0,0,0,1,0,4,5,3,3,2,3,3,3,3,0,2,3,3,2,3,3,0,0,3,0,3,3,45
133-015,133,M,N,N,TNX-102 SL,0,-3,-2,1,1,0,0,0,-1,2,0,-1,-1,-2,0,0,0,0,-3,0,-9,4,3,2,3,2,2,2,3,3,0,3,0,2,2,2,2,2,0,2,2,3,3,40
133-018,133,M,N,N,Placebo,0,0,-2,-1,0,0,-1,0,0,0,0,-1,0,0,0,0,0,0,0,0,-5,4,4,3,3,2,3,0,3,3,2,3,0,2,2,3,3,0,0,3,0,3,3,41
133-019,133,F,N,N,Placebo,1,1,-1,0,0,0,0,0,0,1,1,0,0,0,0,0,0,0,1,1,5,6,5,3,2,3,3,3,3,3,0,2,2,2,3,3,3,2,0,3,3,2,3,48
133-022,133,M,N,N,Placebo,-1,-2,-2,-1,-3,-3,-3,0,-1,0,-2,-1,-1,-2,-1,-3,-1,0,-1,-1,-29,3,1,3,2,2,3,3,3,3,0,2,0,3,1,3,2,2,3,3,0,3,3,44
134-003,134,M,N,N,Placebo,-3,-1,0,0,-1,0,-1,0,0,0,-2,-2,-1,-3,0,-2,0,-1,-1,-3,-21,2,2,3,2,0,2,3,2,2,2,2,3,2,2,3,3,0,2,2,1,3,3,42
134-006,134,M,N,N,TNX-102 SL,-3,2,0,-3,-3,-3,-2,0,0,-2,-3,-2,-3,-1,0,-3,2,0,-3,-4,-31,2,3,3,0,0,3,3,3,2,0,3,2,3,2,3,1,0,3,0,0,3,4,38
134-007,134,F,N,N,TNX-102 SL,0,-3,0,1,0,0,0,-2,0,0,-1,-1,0,-2,-2,-2,-1,0,0,-1,-14,3,3,3,3,2,2,3,3,2,2,3,0,3,3,3,2,3,2,3,2,3,3,50
134-008,134,M,N,N,Placebo,-3,0,0,0,1,0,0,0,0,0,0,1,-2,-1,0,0,0,0,0,0,-4,4,3,3,0,0,3,3,3,3,0,3,0,2,2,4,3,2,3,3,0,3,2,42
135-003,135,M,Y,N,Placebo,-3,0,0,-2,0,-3,2,0,0,0,0,-2,-1,0,-1,-3,0,0,0,0,-13,4,3,3,0,0,2,0,3,0,0,2,2,0,3,3,3,1,3,3,0,2,3,33
135-004,135,M,N,N,Placebo,-3,-1,0,-1,-1,-3,-3,-3,-1,-2,-4,0,-3,-3,-1,-2,-2,0,-2,-3,-38,3,1,3,3,0,3,2,3,3,3,2,2,4,3,3,3,3,2,2,2,2,3,51
135-007,135,M,N,N,Placebo,0,0,0,-1,0,-1,-1,0,1,-1,0,-1,-1,-3,0,0,-1,-1,0,-1,-11,4,3,2,3,2,3,2,3,3,2,2,1,2,3,4,3,1,0,3,3,2,3,47
135-009,135,M,N,N,TNX-102 SL,-2,0,0,-1,-1,0,-2,-2,0,0,0,-2,-1,-3,-1,0,-1,0,0,0,-16,3,2,2,0,0,3,3,0,2,2,0,0,2,2,4,3,3,0,3,3,2,3,37
135-010,135,M,Y,N,TNX-102 SL,-3,-2,0,-2,-1,-3,-2,0,-3,-3,-1,-3,-3,-2,-4,0,0,-2,-3,0,-37,2,2,3,2,0,2,1,3,2,0,3,3,3,3,3,2,4,0,3,2,3,3,45
135-013,135,M,N,Y,Placebo,-1,0,-2,0,0,-2,-2,-2,0,0,0,0,1,0,0,0,0,0,0,-3,-11,4,3,3,0,2,3,3,4,4,2,0,3,3,0,3,0,3,4,4,0,3,3,47
135-016,135,M,Y,N,TNX-102 SL,-3,-3,0,-3,-3,-3,0,0,0,-1,0,-3,-4,-4,0,0,0,0,-4,-3,-34,3,1,3,3,0,3,3,3,0,0,0,2,0,3,4,4,0,0,2,0,4,3,37
135-018,135,M,Y,N,Placebo,0,0,0,0,0,-2,-2,0,-3,-2,-3,-3,-3,-3,-3,0,-1,0,-3,-3,-31,2,1,0,0,0,0,0,2,2,2,3,2,3,3,3,3,3,0,3,0,3,3,35
135-024,135,M,N,N,TNX-102 SL,-3,-2,-3,-2,-2,-3,0,-2,-1,-2,0,0,-2,-2,-2,0,-1,0,-1,-3,-31,3,1,3,3,3,2,2,3,0,2,1,2,0,0,2,2,2,0,2,0,1,3,33
135-028,135,F,N,Y,TNX-102 SL,-3,-3,0,-3,-3,-3,-2,0,-2,-2,-2,-2,-2,0,0,0,0,-2,-2,-4,-35,3,1,3,3,0,3,3,3,2,0,2,2,2,2,2,0,2,0,2,2,2,4,39
135-031,135,M,N,N,Placebo,0,-1,-2,-1,0,0,1,0,-1,0,0,0,0,-2,-1,0,-1,1,-2,0,-9,4,3,2,3,2,3,2,0,0,2,3,0,2,2,2,3,1,0,3,1,3,2,36
135-035,135,M,N,N,Placebo,0,0,0,-1,0,-2,1,0,-2,-1,1,-2,-2,1,0,0,0,2,0,0,-5,3,2,2,0,2,3,2,3,2,0,2,2,2,2,2,2,3,0,2,0,3,3,37
135-038,135,M,N,N,Placebo,0,0,-1,1,0,0,0,0,1,0,-1,-3,0,1,-1,0,-1,0,0,0,-4,4,4,2,3,1,2,2,3,1,0,2,0,3,3,3,2,2,0,3,0,3,3,38
136-003,136,M,Y,Y,Placebo,2,-3,-3,-2,-1,-1,-3,-3,-1,0,-1,-3,-3,-1,1,-1,0,0,-2,-1,-26,2,2,0,3,3,2,3,3,3,3,3,0,3,3,3,3,2,1,3,3,2,3,49
136-005,136,M,N,Y,TNX-102 SL,-3,0,-3,-3,-2,-3,-2,0,0,-2,0,-3,-2,-1,-1,0,-2,-4,1,-1,-31,2,2,3,0,3,3,3,3,2,0,3,2,2,3,3,1,2,0,3,4,0,2,42
136-010,136,M,Y,Y,Placebo,-1,-1,0,-1,0,-3,-3,0,0,-1,1,0,0,1,1,0,1,1,0,1,-4,4,5,3,3,0,2,2,3,3,2,2,1,2,2,3,2,1,0,2,2,2,2,39
137-003,137,M,Y,Y,TNX-102 SL,-3,-2,0,0,0,0,0,0,-1,0,0,-2,-2,-3,-1,0,0,-2,0,-3,-19,2,2,3,2,1,2,2,3,3,0,3,0,2,2,2,3,3,0,2,2,2,3,40
137-007,137,M,Y,N,Placebo,0,0,0,-1,-1,-3,-4,0,-1,0,0,-3,0,-1,0,0,0,0,0,0,-14,3,2,0,0,0,3,3,3,4,0,4,0,2,3,3,3,2,0,2,2,1,3,38
140-001,140,M,N,N,Placebo,0,0,-1,-2,-1,-3,-3,0,-2,-3,-1,0,-3,-3,-1,0,-1,-3,-3,0,-30,4,3,2,0,2,3,2,3,3,0,3,3,3,3,3,3,2,0,3,3,3,3,47
140-005,140,M,Y,N,TNX-102 SL,-1,0,-2,0,-1,0,-3,0,0,-1,0,0,0,0,0,0,-1,0,-1,-1,-11,4,4,3,0,2,3,3,3,3,2,3,3,2,3,3,2,2,0,3,2,3,3,48
141-002,141,M,N,N,TNX-102 SL,-2,0,0,-1,1,0,0,2,1,0,0,0,1,-3,-2,0,-2,0,0,0,-5,4,4,3,3,0,3,0,3,3,0,2,0,1,0,3,3,2,0,3,0,0,4,33
144-001,144,M,N,N,Placebo,0,-1,0,-2,1,-1,-2,1,0,-2,-1,1,-1,0,-2,0,-1,0,-2,0,-12,4,3,2,3,0,2,2,3,2,2,3,3,2,2,3,0,2,0,2,3,2,3,41
144-004,144,M,N,N,TNX-102 SL,-1,-1,0,-2,-2,-1,0,0,1,0,-1,0,0,0,2,0,0,0,0,0,-5,3,4,3,1,0,2,2,3,2,0,2,0,3,3,3,2,0,2,3,0,2,3,36
144-005,144,M,N,N,Placebo,0,-1,0,0,0,0,2,0,0,1,1,0,-1,0,0,0,1,2,0,-1,4,3,4,2,3,2,2,2,2,0,0,3,2,2,2,3,2,2,0,2,0,2,3,36
144-006,144,M,N,N,TNX-102 SL,0,-1,2,0,-2,0,0,0,-2,0,-2,-2,0,0,-1,0,0,0,0,0,-8,4,4,2,3,0,2,2,2,2,0,2,2,2,2,2,2,2,0,2,2,0,2,33
144-007,144,M,Y,N,Placebo,-2,-3,0,-2,-2,-3,0,0,-2,0,-2,-3,-3,-3,-2,0,-3,1,0,-3,-32,2,1,2,3,0,2,3,3,0,0,2,0,2,3,3,3,2,0,3,0,0,3,34
144-008,144,M,N,N,TNX-102 SL,0,0,0,-2,-1,-3,-3,-2,-1,0,-2,-3,-1,-3,0,0,0,0,0,-1,-22,3,3,2,0,0,2,3,3,3,2,3,0,3,3,3,3,2,0,3,2,2,3,42
144-012,144,M,N,N,TNX-102 SL,0,1,-2,-2,-1,-3,-1,0,-3,-3,-2,-2,0,0,-2,0,0,0,2,-2,-20,3,1,0,0,2,2,2,3,2,0,3,3,2,2,2,0,2,0,3,2,0,3,33
144-013,144,M,N,N,TNX-102 SL,0,-3,-2,0,0,0,0,0,1,-2,-3,0,1,0,1,0,-2,1,0,-1,-9,3,3,3,3,2,3,3,3,3,0,2,2,3,3,3,2,0,0,2,2,3,3,45
144-014,144,M,Y,N,Placebo,0,0,0,-1,0,-1,-2,0,-2,-3,-3,-2,-3,-2,-2,-2,0,-2,-2,1,-26,3,2,2,3,0,3,2,3,2,2,2,3,3,2,3,2,2,2,2,2,2,3,45
144-015,144,M,N,N,Placebo,0,-1,2,0,0,0,2,0,0,0,0,0,0,1,0,0,0,0,0,0,4,4,4,2,3,0,2,2,3,0,2,3,2,2,3,3,2,2,0,3,2,3,3,42
145-013,145,M,N,N,TNX-102 SL,-3,-4,-3,-3,-3,-3,-3,-2,-3,-3,-3,-2,-3,-3,-3,-3,-3,-2,-3,-3,-58,2,2,3,4,3,3,3,3,3,2,3,3,3,2,3,3,3,3,3,2,3,3,58
145-015,145,M,N,N,Placebo,-1,0,0,-2,-1,-3,0,0,-1,-1,-1,-1,-3,0,1,0,0,0,0,0,-13,4,4,3,0,0,4,3,3,0,2,3,4,4,4,3,3,2,0,0,0,3,2,43
148-001,148,M,N,N,TNX-102 SL,0,0,0,0,0,-2,-1,-1,-3,0,-2,-2,-3,-1,-1,0,-1,-2,0,-1,-20,2,2,2,0,0,2,1,2,2,2,4,0,3,2,3,1,3,0,2,2,0,3,34
148-002,148,M,Y,N,Placebo,-2,-3,0,-2,-2,-2,0,-1,0,0,-1,-3,-3,-3,0,0,1,0,-3,-1,-25,3,2,2,3,0,2,2,2,2,1,0,0,2,3,3,3,2,0,1,1,3,3,35
148-005,148,M,N,N,Placebo,0,0,0,-2,-1,-3,-3,0,-1,1,-1,-2,0,0,0,0,-1,2,0,-1,-12,3,3,0,0,0,2,1,3,3,0,4,1,4,2,3,2,3,2,3,0,0,1,34
148-007,148,M,N,N,TNX-102 SL,1,-2,0,-1,0,-3,0,0,0,3,0,-2,-2,0,-2,-2,-2,0,-1,0,-13,4,3,0,2,0,3,2,3,0,0,3,0,3,2,2,0,4,2,4,3,3,3,39
149-001,149,M,N,N,Placebo,0,-2,-1,-2,-2,-1,2,-1,0,0,0,0,0,0,1,-1,-1,-2,0,0,-10,3,4,2,2,1,2,2,2,0,3,2,3,2,2,3,3,2,1,3,2,2,3,42
